 (  (                           
 )\))(   '           (     )    
((_)()\ )  (   (    ))\   (     
_(())\_)() )\  )\  /((_)  )\  ' 
\ \((_)/ /((_)((_)(_))  _((_))  
 \ \/\/ // _ \(_-</ -_)| '  \() 
  \_/\_/ \___//__/\___||_|_|_|  
  
    Semgrep scan for all official
    Wodpress plugins including 
    Telegram notifications
    
        by Salamanderli 